module github.com/romanthekat/planning-poker

go 1.15

require (
	github.com/gorilla/handlers v1.5.1
	github.com/gorilla/mux v1.8.0
	github.com/gorilla/websocket v1.4.2
	gopkg.in/check.v1 v1.0.0-20201130134442-10cb98267c6c // indirect
	gopkg.in/validator.v2 v2.0.0-20200605151824-2b28d334fa05
)
